<?xml version="1.0" encoding="UTF-8"?>
<svg xmlns="http://www.w3.org/2000/svg" xmlns:xlink="http://www.w3.org/1999/xlink" width="48px" height="48px" viewBox="0 0 48 48" version="1.1">
 <title>Icon-Return</title>
<g id="Icon-Return">
<path style=" stroke:none;fill-rule:nonzero;fill:rgb(0,65,255);fill-opacity:1;" d="M 34.125 46.125 C 34.125 47.160156 33.285156 48 32.25 48 L 9.375 48 C 5.238281 48 1.875 44.636719 1.875 40.5 L 1.875 19.6875 C 1.875 18.652344 2.714844 17.8125 3.75 17.8125 C 4.785156 17.8125 5.625 18.652344 5.625 19.6875 L 5.625 40.5 C 5.625 42.566406 7.308594 44.25 9.375 44.25 L 32.25 44.25 C 33.285156 44.25 34.125 45.089844 34.125 46.125 Z M 48 5.625 L 48 11.25 C 48 12.285156 47.160156 13.125 46.125 13.125 L 46.125 26.8125 C 46.125 27.847656 45.285156 28.6875 44.25 28.6875 C 43.214844 28.6875 42.375 27.847656 42.375 26.8125 L 42.375 13.125 L 1.875 13.125 C 0.839844 13.125 0 12.285156 0 11.25 L 0 5.625 C 0 2.523438 2.523438 0 5.625 0 L 42.375 0 C 45.476562 0 48 2.523438 48 5.625 Z M 3.75 9.375 L 44.25 9.375 L 44.25 5.625 C 44.25 4.589844 43.410156 3.75 42.375 3.75 L 5.625 3.75 C 4.589844 3.75 3.75 4.589844 3.75 5.625 Z M 28.125 20.625 C 29.160156 20.625 30 19.785156 30 18.75 C 30 17.714844 29.160156 16.875 28.125 16.875 L 19.6875 16.875 C 18.652344 16.875 17.8125 17.714844 17.8125 18.75 C 17.8125 19.785156 18.652344 20.625 19.6875 20.625 Z M 39.703125 31.40625 L 29.8125 31.40625 L 32.164062 29.082031 C 32.898438 28.355469 32.90625 27.167969 32.175781 26.433594 C 31.449219 25.695312 30.261719 25.6875 29.523438 26.417969 L 26.042969 29.859375 C 25.152344 30.742188 24.65625 31.917969 24.65625 33.171875 C 24.65625 34.425781 25.144531 35.601562 26.035156 36.488281 L 29.519531 39.953125 C 29.886719 40.320312 30.367188 40.5 30.84375 40.5 C 31.324219 40.5 31.808594 40.316406 32.171875 39.945312 C 32.902344 39.210938 32.898438 38.027344 32.164062 37.296875 L 30.015625 35.15625 L 39.703125 35.15625 C 42.210938 35.15625 44.25 37.195312 44.25 39.703125 C 44.25 42.210938 42.234375 44.25 39.753906 44.25 C 38.71875 44.25 37.878906 45.089844 37.878906 46.125 C 37.878906 47.160156 38.71875 48 39.753906 48 C 41.972656 48 44.050781 47.132812 45.601562 45.5625 C 47.148438 44 48 41.917969 48 39.703125 C 48 35.128906 44.277344 31.40625 39.703125 31.40625 Z M 39.703125 31.40625 "/>
</g>
</svg>
